package rules.Preupdate.ABContactPreupdate_dir.TDIC_WC100000_dir
/*
   Added by Kunal Bhalla
   This Rule Updates the Column ADANumberDenorm_TDIC on ABContact whenever the value of ADANumberOfficialID_TDIC is updated in OfficialID Array
*/
@gw.rules.RuleName("TDIC_COPU130000 - ABContact OfficalID Change")
internal class TDIC_COPU130000ABContactOfficalIDChange {
  static function doCondition(aBContact : entity.ABContact) : boolean {
/*start00rule*/
return (aBContact.ADANumberDenorm_TDIC != aBContact.ADANumberOfficialID_TDIC)
/*end00rule*/
}

  static function doAction(aBContact : entity.ABContact, actions : gw.rules.Action) {
/*start00rule*/
aBContact.ADANumberDenorm_TDIC = aBContact.ADANumberOfficialID_TDIC
/*end00rule*/
  }
}
