package rules.Preupdate.ABContactPreupdate_dir.TDIC_WC100000_dir.TDIC_COPU120000ContactsOfficialIDschanged_dir


@gw.rules.RuleName("TDIC_COPU121000 - Remove duplicated OfficialIDs")
internal class TDIC_COPU121000RemoveduplicatedOfficialIDs {
  static function doCondition(aBContact : entity.ABContact) : boolean {
/*start00rule*/
return true
/*end00rule*/
}

  static function doAction(aBContact : entity.ABContact, actions : gw.rules.Action) {
/*start00rule*/
/**
 * US1130
 * 02/10/2015 Vicente
 *
 * Remove duplicated OfficialIDs created during the synchronization with PolicyCenter.
 *
 */
var newOfficialIDs = aBContact.getChangedArrayElements(ABContact#OfficialIDs)
var duplicatedOfficialIDs = aBContact.OfficialIDs.where( \ officialID -> newOfficialIDs.hasMatch( \ newOfficialID -> (newOfficialID as ABOfficialID).OfficialIDType == officialID.OfficialIDType and newOfficialID!= officialID))
duplicatedOfficialIDs.each( \ duplicatedOfficialID -> duplicatedOfficialID.remove()) 
/*end00rule*/
  }
}
