package rules.Preupdate.ABContactPreupdate_dir

@gw.rules.RuleName("TDIC_WC100000")
internal class TDIC_WC100000 {
  static function doCondition(aBContact : entity.ABContact) : boolean {
/*start00rule*/
return true
/*end00rule*/
}

  static function doAction(aBContact : entity.ABContact, actions : gw.rules.Action) {
/*start00rule*/
 
/*end00rule*/
  }
}
